<?xml version="1.0" standalone="no"?>
<!DOCTYPE svg PUBLIC "-//W3C//DTD SVG 20010904//EN"
 "http://www.w3.org/TR/2001/REC-SVG-20010904/DTD/svg10.dtd">
<svg version="1.0" xmlns="http://www.w3.org/2000/svg"
 width="224.000000pt" height="52.000000pt" viewBox="0 0 224.000000 52.000000"
 preserveAspectRatio="xMidYMid meet">
<metadata>
Created by potrace 1.15, written by Peter Selinger 2001-2017
</metadata>
<g transform="translate(0.000000,52.000000) scale(0.100000,-0.100000)"
fill="#000000" stroke="none">
<path d="M2073 513 l-73 -4 0 -44 0 -45 84 0 c46 0 96 3 112 6 27 5 29 8 26
50 -4 44 -4 44 -41 42 -20 -1 -69 -4 -108 -5z"/>
<path d="M1721 502 l-54 -3 5 -130 c3 -71 4 -129 3 -129 -2 0 -40 58 -86 130
l-84 130 -51 0 c-57 0 -69 -6 -51 -28 10 -13 9 -14 -2 -7 -12 7 -13 0 -8 -40
4 -26 7 -124 7 -216 l0 -169 61 0 61 0 -7 130 c-4 72 -5 130 -3 130 3 0 42
-56 88 -125 l83 -125 52 0 53 0 0 133 c1 72 -2 175 -6 227 l-7 95 -54 -3z"/>
<path d="M1878 288 c2 -123 7 -226 11 -230 4 -4 31 -5 60 -1 l54 6 -7 135 c-3
74 -6 175 -6 224 l0 88 -58 0 -58 0 4 -222z"/>
<path d="M1002 484 c-93 -35 -149 -133 -139 -244 10 -119 80 -196 195 -214
l42 -6 0 49 c0 47 -2 50 -30 56 -69 15 -108 116 -76 200 17 43 51 75 80 75 10
0 16 13 19 43 l4 42 1 -40 c2 -37 5 -42 34 -50 49 -15 78 -65 78 -134 0 -67
-24 -112 -69 -131 -29 -11 -31 -16 -31 -60 l0 -48 41 9 c115 26 179 107 179
227 0 103 -38 175 -113 214 -55 28 -156 33 -215 12z"/>
<path d="M105 458 c-115 -40 -128 -186 -22 -237 23 -11 71 -25 107 -31 35 -7
73 -16 83 -22 28 -15 17 -51 -20 -67 -30 -13 -33 -18 -33 -59 l0 -45 46 7 c94
12 152 78 141 158 -11 79 -46 105 -180 134 -39 8 -78 21 -86 29 -20 20 -6 44
29 51 28 6 30 10 30 50 0 43 -1 44 -32 43 -18 0 -46 -5 -63 -11z"/>
<path d="M210 427 c0 -38 3 -44 31 -54 17 -7 33 -21 36 -32 4 -16 13 -21 42
-21 20 0 46 3 58 6 18 5 20 10 12 36 -19 68 -72 108 -143 108 -36 0 -36 0 -36
-43z"/>
<path d="M530 325 l-44 -45 24 -25 c21 -23 25 -24 40 -10 15 14 18 14 30 0 11
-14 8 -21 -23 -53 -41 -42 -44 -53 -22 -72 14 -11 22 -7 58 28 l42 41 40 -34
c45 -39 57 -42 76 -19 12 15 8 21 -30 55 -36 32 -41 42 -31 54 9 11 16 12 30
2 15 -9 23 -8 39 7 12 11 21 23 21 29 0 12 -82 86 -96 87 -6 0 -19 -9 -30 -21
-15 -16 -16 -24 -7 -39 10 -14 9 -21 -1 -29 -19 -16 -45 14 -28 31 9 9 7 18
-10 35 -12 13 -24 23 -28 23 -3 0 -26 -20 -50 -45z"/>
<path d="M2068 343 l-68 -4 0 -44 0 -45 53 0 c28 0 76 3 105 6 l52 7 0 43 0
44 -37 -2 c-21 -1 -68 -3 -105 -5z"/>
<path d="M13 152 c-13 -8 -6 -49 16 -90 15 -29 90 -62 139 -62 l42 0 0 44 c0
39 -3 45 -27 51 -33 8 -63 33 -63 52 0 15 -86 19 -107 5z"/>
<path d="M2108 153 l-98 -4 0 -44 0 -45 115 0 115 0 0 50 c0 42 -3 50 -17 48
-10 -1 -62 -4 -115 -5z"/>
</g>
</svg>
